<svg width="20" height="17" viewBox="0 0 20 17" fill="none" xmlns="http://www.w3.org/2000/svg">
<path d="M6.3153 16.1236C13.8126 16.1236 17.9126 9.94628 17.9126 4.58955C17.9126 4.41409 17.909 4.23943 17.9011 4.06556C18.697 3.49335 19.3887 2.77928 19.9343 1.96641C19.204 2.28927 18.4181 2.50661 17.5936 2.60461C18.4351 2.10274 19.0812 1.30885 19.386 0.362446C18.5985 0.826771 17.7263 1.16425 16.7977 1.34645C16.0539 0.558503 14.995 0.0656738 13.8225 0.0656738C11.5715 0.0656738 9.74619 1.88111 9.74619 4.1189C9.74619 4.437 9.78195 4.74642 9.85188 5.04322C6.46422 4.87369 3.46029 3.26061 1.44989 0.8078C1.09983 1.40687 0.897986 2.10276 0.897986 2.84529C0.897986 4.2517 1.61759 5.49329 2.71185 6.21964C2.04312 6.19909 1.41492 6.01651 0.865853 5.71263C0.865253 5.72964 0.865251 5.74622 0.865251 5.7644C0.865251 7.72762 2.27025 9.36676 4.13532 9.73819C3.79281 9.83105 3.43245 9.88084 3.06052 9.88084C2.79828 9.88084 2.54278 9.85517 2.29445 9.80774C2.81337 11.4184 4.31812 12.5905 6.10212 12.6233C4.70705 13.7108 2.94965 14.3585 1.03965 14.3585C0.711053 14.3585 0.386429 14.3399 0.0673828 14.3024C1.87132 15.4523 4.01332 16.1233 6.31552 16.1233" fill="#94A2AB" fill-opacity="0.69"/>
</svg>
