<svg width="32" height="30" viewBox="0 0 32 30" fill="none" xmlns="http://www.w3.org/2000/svg">
<path d="M28.5957 2.74464V0.0212402H2.7234V2.74464L0 12.2766V13.8371C0 15.2566 0.842213 16.5217 2.04255 17.1535C2.04255 21.3571 2.04255 29.9787 2.04255 29.9787H7.48936V19.0851H12.9362V29.9787H29.2766V17.4306C30.8276 16.9724 32 15.5126 32 13.8371V12.2766L28.5957 2.74464ZM3.74468 16.22C2.62264 16.22 1.3617 15.32 1.3617 13.6383H6.12766C6.12766 15.3172 4.86808 16.22 3.74468 16.22ZM23.1489 2.74464L24.5106 12.2766C21.8397 12.2766 21.7049 12.2766 19.7447 12.2766L19.0638 2.74464H23.1489ZM24.5106 13.6383C24.5106 15.3063 23.2606 16.22 22.1277 16.22C20.9695 16.22 19.7447 15.2852 19.7447 13.6383H24.5106ZM9.87234 16.22C8.7503 16.22 7.48936 15.32 7.48936 13.6383H12.2553C12.2553 15.3172 10.9957 16.22 9.87234 16.22ZM12.2553 12.2766C10.3612 12.2766 10.0943 12.2766 7.48936 12.2766L8.85106 2.74464H12.9362L12.2553 12.2766ZM13.617 13.6383H18.383C18.383 15.3172 17.1234 16.22 16 16.22C14.878 16.22 13.617 15.32 13.617 13.6383ZM26.5532 27.2553H15.6596V19.0851H26.5532V27.2553ZM28.2553 16.22C27.0972 16.22 25.8723 15.2852 25.8723 13.6383H30.6383C30.6383 15.3063 29.3883 16.22 28.2553 16.22Z" fill="black"/>
</svg>
