<svg width="260" height="128" viewBox="0 0 260 128" fill="none" xmlns="http://www.w3.org/2000/svg">
<mask id="mask0" mask-type="alpha" maskUnits="userSpaceOnUse" x="0" y="0" width="260" height="128">
<path d="M16 0C7.16344 0 0 4.81657 0 10.7581V107.581C0 113.523 7.16344 118.339 16 118.339H119.336C120.453 118.339 121.519 118.806 122.276 119.627L128.53 126.407C129.322 127.265 130.678 127.265 131.47 126.407L137.725 119.627C138.482 118.806 139.548 118.339 140.665 118.339H244C252.837 118.339 260 113.523 260 107.581V10.7581C260 4.81658 252.837 0 244 0H16Z" fill="white"/>
</mask>
<g mask="url(#mask0)">
<path d="M-6.37115 31.8476C-9.16925 30.4872 -11.4443 29.638 -13.2595 29.266C-15.0621 28.8966 -16.6586 28.955 -17.7711 29.697C-18.8252 30.4 -19.1356 31.5264 -19.1131 32.7239C-19.09 33.9545 -18.7114 35.4498 -18.0998 37.1014C-15.7115 43.5506 -9.5138 53.023 -4.80536 60.2192L-4.42074 60.8071L-4.28899 60.8984C-3.34944 61.5494 -1.71128 62.5022 0.205322 63.286C2.10156 64.0614 4.39768 64.7242 6.61678 64.6748C9.29825 64.6151 11.9294 63.8594 13.738 62.0783C15.5263 60.3172 16.4046 57.6572 15.9368 53.9318C15.1653 47.7885 10.5333 40.0666 -6.37115 31.8476Z" fill="#7175D8"/>
<path d="M68.7537 -5.24121H4.16113L4.84359 -4.22103C9.13834 2.19907 17.279 11.8084 27.7769 19.8073C38.2445 27.7832 51.2378 34.2951 65.2368 34.2227C72.2517 34.1865 76.8402 32.5136 79.4291 29.6702C81.9728 26.8764 82.4379 23.1067 81.7445 19.0839C80.3558 11.0273 74.2301 1.45375 69.0431 -4.8874L68.7537 -5.24121Z" fill="#7175D8"/>
<path d="M17.2662 -8.66714L16.5714 -8.92407L-5.7832 9.21708L-5.46371 9.65109C-2.8527 13.1979 1.97245 18.5816 7.83026 22.7531C13.6235 26.8786 20.7607 30.0495 27.8974 28.5854C32.827 27.5741 35.4311 24.9136 36.3491 21.5592C37.2565 18.2432 36.5452 14.2006 34.8785 10.1905C33.2069 6.16861 30.5463 2.11212 27.4555 -1.25679C24.3812 -4.60774 20.8094 -7.35693 17.2662 -8.66714Z" fill="#5ECBA1"/>
<path fill-rule="evenodd" clip-rule="evenodd" d="M23.1761 -5.24121H12.0331L7.00684 -1.16231C11.6086 5.02035 18.8374 12.9974 27.7748 19.8073C30.014 21.5135 32.3687 23.1526 34.8241 24.6747C35.5397 23.7392 36.0399 22.6886 36.3489 21.5593C37.2563 18.2433 36.545 14.2007 34.8783 10.1906C33.2067 6.16872 30.5461 2.11223 27.4553 -1.25669C26.1095 -2.72359 24.6684 -4.07517 23.1761 -5.24121Z" fill="#161722"/>
<path d="M180.685 -12.0413L180.384 -12.4463L56.416 -7.23364L56.4818 -6.51741C57.0462 -0.368092 60.6627 12.8022 75.3652 21.7132C80.718 24.9575 85.9037 25.4818 92.0323 26.1014C92.8649 26.1855 93.7149 26.2715 94.5851 26.3662C101.864 27.1588 110.964 28.5764 124.068 34.5996C130.055 37.3514 134.268 39.5061 137.478 41.2013C138.37 41.6727 139.191 42.1116 139.953 42.5197C141.915 43.5688 143.495 44.4142 144.942 45.0848C146.992 46.0346 148.83 46.6622 151.226 47.0866C153.59 47.5056 156.467 47.7211 160.574 47.8823C169.269 48.2236 182.378 44.0444 189.248 34.357C196.147 24.63 196.682 9.49172 180.685 -12.0413Z" fill="#5ECBA1"/>
<path d="M267.773 -2.78711H151.156L151.528 -1.87513C152.659 0.903843 155.227 5.45825 159.274 10.1698C163.319 14.8802 168.878 19.7907 176.017 23.2324C184.016 27.0888 190.929 28.2054 197.167 29.2129C197.874 29.327 198.573 29.4399 199.263 29.5551C205.995 30.6789 212.027 32.0342 218.351 37.1368C222.939 40.839 226.058 44.7319 228.718 48.5201C229.546 49.6999 230.335 50.8786 231.114 52.0407C232.813 54.5783 234.459 57.0364 236.342 59.252C239.116 62.5153 242.476 65.3508 247.471 67.3587C252.46 69.3641 258.988 70.5072 268.014 70.5072H269.027L267.773 -2.78711Z" fill="#7175D8"/>
<path fill-rule="evenodd" clip-rule="evenodd" d="M186.798 -2.78711H151.156L151.528 -1.87513C152.659 0.903843 155.227 5.45825 159.274 10.1698C163.319 14.8802 168.878 19.7907 176.017 23.2324C182.018 26.1256 187.408 27.4767 192.36 28.3965C195.151 20.5728 194.294 10.2747 186.798 -2.78711Z" fill="#161722"/>
<path d="M213.713 38.0843C217.182 43.3773 216.09 48.7851 211.835 50.2032C207.2 51.7481 200.657 48.9345 197.188 43.6415C195.091 40.4426 192.734 33.2828 198.042 31.5135C203.351 29.7442 210.244 32.7913 213.713 38.0843Z" fill="#7175D8"/>
<path d="M97.3145 35.5464C99.5466 38.9521 99.0437 42.4968 96.4362 43.3659C93.5956 44.3127 89.2989 41.6279 87.1872 38.9521C86.7396 38.3849 84.4576 32.6038 87.7108 31.5195C90.964 30.4352 95.1886 32.3026 97.3145 35.5464Z" fill="#5ECBA1"/>
</g>
</svg>
